Useful Zeros: poisson mixtures and custom families – Andrew MacDonald
…
Chain 3 finished in 21.3 seconds.
Chain 4 finished in 21.7 seconds.
Chain 1 finished in 21.9 seconds.
Chain 2 finished in 21.9 seconds.

All 4 chains finished successfully.
Mean chain execution time: 21.7 seconds.
Total execution time: 21.9 seconds.

mixture_growth_post$summary()

Warning: The ESS has been capped to avoid unstable estimates.

# A tibble: 604 × 10
   variable      mean    median      sd     mad       q5      q95  rhat ess_bulk
   <chr>        <dbl>     <dbl>   <dbl>   <dbl>    <dbl>    <dbl> <dbl>    <dbl>
 1 lp__     -3254.    -3254.    20.2    20.2    -3.29e+3 -3.22e+3  1.09    45.7 
 2 r_bar        1.30      1.30   0.0289  0.0284  1.26e+0  1.35e+0  1.03   196.  
 3 m            0.203     0.203  0.0136  0.0135  1.81e-1  2.26e-1  1.05    55.6 
 4 r_sd         0.509     0.508  0.0232  0.0229  4.72e-1  5.48e-1  1.01   270.  
 5 r_z[1]      -1.31     -1.31   0.295   0.292  -1.79e+0 -8.35e-1  1.00  4352.  
 6 r_z[2]       0.295     0.289  0.131   0.123   8.72e-2  5.15e-1  1.01   693.  
 7 r_z[3]       2.40      2.32   0.240   0.181   2.10e+0  2.86e+0  1.53     7.50
 8 r_z[4]      -0.663    -0.659  0.192   0.186  -9.83e-1 -3.54e-1  1.00  2770.  
 9 r_z[5]       0.265     0.223  0.221   0.161  -7.14e-4  8.03e-1  1.01   656.  
10 r_z[6]      -0.142    -0.147  0.187   0.162  -4.29e-1  1.46e-1  1.00  1957.  
# ℹ 594 more rows
# ℹ 1 more variable: ess_tail <dbl>
…
