Andrew MacDonald - Modelling occupancy plus phenology
…
fake_data

# A tibble: 200 × 5
# Rowwise: 
   sample_id real_pres sample_size pa           abd
       <int>     <int>       <dbl> <list>     <int>
 1         1         0          36 <int [36]>     0
 2         2         0          13 <int [13]>     0
 3         3         0          36 <int [36]>     0
 4         4         0          13 <int [13]>     0
 5         5         0           8 <int [8]>      0
 6         6         0          33 <int [33]>     0
 7         7         1          12 <int [12]>    11
 8         8         0          37 <int [37]>     0
 9         9         0          34 <int [34]>     0
10        10         0           4 <int [4]>      0
# … with 190 more rows
…
