Andrew MacDonald - Guessing the age of Kangaroos
…
All 4 chains finished successfully.
Mean chain execution time: 2.3 seconds.
Total execution time: 3.0 seconds.

How did we do?

growth rates

roo_age_post |> 
  gather_rvars(r[roo])

# A tibble: 310 × 3
     roo .variable        .value
   <int> <chr>        <rvar[1d]>
 1     1 r          0.47 ± 0.178
 2     2 r          0.46 ± 0.090
 3     3 r          0.64 ± 0.270
 4     4 r          0.42 ± 0.174
 5     5 r          0.68 ± 0.134
 6     6 r          0.53 ± 0.096
 7     7 r          0.46 ± 0.197
 8     8 r          0.59 ± 0.204
 9     9 r          0.57 ± 0.134
10    10 r          0.65 ± 0.152
# ℹ 300 more rows
…
roos_observed

# A tibble: 981 × 11
# Groups:   roo_id [310]
   roo_id cohort_id   age roo_gr   leg  year is_caught leg_meas age_at_capture
    <int>     <int> <int>  <dbl> <dbl> <dbl>     <int>    <dbl>          <int>
 1      1         1     8   0.31  45.8  2009         1     45.3             NA
 2      1         1     9   0.31  46.9  2010         1     46.3             NA
 3      1         1    10   0.31  47.7  2011         1     47.5             NA
 4      1         1    12   0.31  48.8  2013         1     49.1             NA
 5      2         1     9   0.31  46.9  2010         1     46.5             NA
 6      2         1    10   0.31  47.7  2011         1     48.0             NA
 7      3         1     9   0.31  46.9  2010         1     47.2             NA
 8      3         1    10   0.31  47.7  2011         1     47.8             NA
 9      3         1    11   0.31  48.3  2012         1     49.1             NA
10      3         1    12   0.31  48.8  2013         1     49.3             NA
# ℹ 971 more rows
# ℹ 2 more variables: time_since_capture <dbl>, roo_id_obs <dbl>
…
