Andrew MacDonald - modelling discrete growth
…
vb_discrete_post$summary()

# A tibble: 23 × 10
   variable    mean  median     sd    mad      q5     q95  rhat ess_bulk
   <chr>      <num>   <num>  <num>  <num>   <num>   <num> <num>    <num>
 1 lp__     -34.4   -34.1   1.48   1.29   -37.3   -32.7    1.00    1952.
 2 Lstart    10.7    10.8   1.71   1.75     7.95   13.5    1.00    3002.
 3 Lmax     119.    119.    2.26   2.21   116.    123.     1.00    3254.
 4 r          0.323   0.323 0.0283 0.0280   0.278   0.370  1.00    2927.
 5 sigma      2.23    2.21  0.296  0.285    1.80    2.76   1.00    3209.
 6 mu[1]     10.7    10.8   1.71   1.75     7.95   13.5    1.00    3002.
 7 mu[2]     62.2    62.3   2.62   2.61    57.9    66.4    1.00    3864.
 8 mu[3]     89.1    89.2   2.69   2.62    84.5    93.3    1.00    4082.
 9 mu[4]    103.    103.    2.18   2.14    99.6   107.     1.00    4817.
10 mu[5]    111.    111.    1.83   1.81   108.    114.     1.00    5148.
# ℹ 13 more rows
# ℹ 1 more variable: ess_tail <num>
…
